
<svg xmlns="http://www.w3.org/2000/svg" xmlns:xlink="http://www.w3.org/1999/xlink" width="1000" height="1000" viewBox="0 0 10 10">
  <defs><filter id="blur-shadow" x="-1" y="-1" height="7" width="7"><feGaussianBlur in="SourceGraphic" stdDeviation=".3" /></filter>
    <linearGradient id="container-linear"><stop offset="0%" stop-color="#fff"/><stop offset="70%" stop-color="#ddd" stop-opacity=".95" /><stop offset="100%"  stop-color="#bbb"/></linearGradient>
  </defs>
  <path d="M5 .75l4 2.32V7.7L5 10z" fill="#a0a0a0" fill-opacity=".65"/>
  <path d="M1 3.06v4.63L5 10V5.38z" fill="#6a6a6a" fill-opacity=".7"/>
  <path d="M1 3.06L5 .75v4.63z" fill="#7f7f7f" fill-opacity=".75"/>
  <path d="M1 7.68l4 2.33V5.38z" fill="#929292" fill-opacity=".68"/>
  <g transform="translate(0.4999,0.2902)" id="c-c">
    <g id="c-b">
      <g id="c-a">
        <rect transform="translate(-7.679e-4,0.576) matrix(0.866,-0.5,0,1,0,0)" ry=".28" rx=".28" y="3.46" x="1.61" height="1.74" width="1.73" fill-opacity=".3" fill="#000" filter="url(#blur-shadow)" />
        <rect transform="matrix(0.866,-0.5,0,1,0,0)" ry=".3" rx=".3" y="4.22" x="1.73" height="1.74" width="1.73" style="fill:url(#container-linear);opacity:.95"/>
      </g>
      <use height="100%" width="100%" transform="translate(2,-1.155)" xlink:href="#c-a"/>
    </g>
    <use xlink:href="#c-b" transform="translate(0,2.892)" width="100%" height="100%"/>
  </g>
  <use height="100%" width="100%" transform="translate(1.157,0.5785)" xlink:href="#c-c"/>
  <use xlink:href="#c-c" transform="translate(2.314,1.157)" width="100%" height="100%"/>
  <path d="M8.85 2.97V7.6l-4 2.3V5.29z" fill-opacity=".21" filter="url(#blur-shadow)" />
  <path d="M9 3.07V7.7L5 10V5.38l.07-.04z" fill="#e5e5e5"/>
  <path  d="M8.05 7.46l.47-.27-1.1-2.44-.47.27-1.1 3.72.46-.28.25-.85 1.25-.72zm-.39-.88l-.96.55.49-1.67z" fill="#00b9e4"/>
</svg>

 