<?xml version="1.0" encoding="UTF-8" standalone="no"?>
<!-- Created with Inkscape (http://www.inkscape.org/) -->

<svg
   xmlns:dc="http://purl.org/dc/elements/1.1/"
   xmlns:cc="http://creativecommons.org/ns#"
   xmlns:rdf="http://www.w3.org/1999/02/22-rdf-syntax-ns#"
   xmlns:svg="http://www.w3.org/2000/svg"
   xmlns="http://www.w3.org/2000/svg"
   xmlns:sodipodi="http://sodipodi.sourceforge.net/DTD/sodipodi-0.dtd"
   xmlns:inkscape="http://www.inkscape.org/namespaces/inkscape"
      viewBox="0 0 10 10"
   version="1.1"
   id="svg"
   inkscape:version="0.92.3 (2405546, 2018-03-11)"
   sodipodi:docname="inkscape-template.svg">
  
  <sodipodi:namedview
     id="base"
     pagecolor="#cbccd2"
     bordercolor="#666666"
     borderopacity="1.0"
     inkscape:pageopacity="0"
     inkscape:pageshadow="2"
     inkscape:zoom="64"
     inkscape:cx="5.45"
     inkscape:cy="4.037"
     inkscape:document-units="mm"
     inkscape:current-layer="svg"
     showgrid="true"
     units="px"
     inkscape:window-width="1920"
     inkscape:window-height="1053"
     inkscape:window-x="0"
     inkscape:window-y="27"
     inkscape:window-maximized="1"
     inkscape:showpageshadow="false"
     borderlayer="true">
    <inkscape:grid
       type="axonomgrid"
       id="grid812"
       units="px"
       empspacing="5"
       spacingy="0.5785"
       originy="0"
       color="#747474"
       opacity="0.262745"
       empcolor="#3c3c3c"
       empopacity="0.533"
       gridanglex="30.1" />
  </sodipodi:namedview>
  <metadata
     id="metadata3728">
    <rdf:RDF>
      <cc:Work
         rdf:about="">
        <dc:title></dc:title>
        <dc:format>image/svg+xml</dc:format>
        <dc:type
           rdf:resource="http://purl.org/dc/dcmitype/StillImage" />
      </cc:Work>
    </rdf:RDF>
  </metadata>
  <path
     style="stroke-width:1;fill:#a30000"
     d="M 0.5,4.505 5,1.907 9.5,4.515 5,7.113 Z"
     id="rect4222"
     inkscape:connector-curvature="0"
     sodipodi:nodetypes="ccccc" />
  <path
     sodipodi:nodetypes="ccccc"
     inkscape:connector-curvature="0"
     id="path4244"
     d="M 0.5,4.505 0.4999,5.084 5,7.692 5,7.113 Z"
     style="stroke-width:1;fill:#820000" />
  <path
     style="stroke-width:1;fill:#cc0000"
     d="M 9.5,4.515 9.5,5.094 5,7.692 V 7.113 Z"
     id="path4246"
     inkscape:connector-curvature="0"
     sodipodi:nodetypes="ccccc" />
</svg>
